<svg class="hide" xmlns="http://www.w3.org/2000/svg" version="1.1">
  <defs>
    <filter id="f1" x="0" y="0">
      <feGaussianBlur in="SourceGraphic" stdDeviation="15"></feGaussianBlur>
    </filter>
  </defs>
</svg>
